/home/shadrackmabitsela/problems/submission-102-java-003-mastermind/src/test/java/za/co/wethinkcode/mastermind/MastermindTest.java
/home/shadrackmabitsela/problems/submission-102-java-003-mastermind/src/test/java/za/co/wethinkcode/lms/test/MastermindTest.java
/home/shadrackmabitsela/problems/submission-102-java-003-mastermind/src/test/java/za/co/wethinkcode/mastermind/CodeGeneratorTest.java
/home/shadrackmabitsela/problems/submission-102-java-003-mastermind/src/test/java/za/co/wethinkcode/lms/test/StudentTest.java
/home/shadrackmabitsela/problems/submission-102-java-003-mastermind/src/test/java/za/co/wethinkcode/lms/test/PlayerTest.java
/home/shadrackmabitsela/problems/submission-102-java-003-mastermind/src/test/java/za/co/wethinkcode/lms/test/RunJUnit5TestsFromJava.java
/home/shadrackmabitsela/problems/submission-102-java-003-mastermind/src/test/java/za/co/wethinkcode/mastermind/PlayerTest.java
/home/shadrackmabitsela/problems/submission-102-java-003-mastermind/src/test/java/za/co/wethinkcode/lms/test/CodeGeneratorTest.java
